%YAML 1.1
%TAG !u! tag:unity3d.com,2011:
--- !u!1045 &1
EditorBuildSettings:
  m_ObjectHideFlags: 0
  serializedVersion: 2
  m_Scenes:
  - enabled: 1
    path: Assets/01_Scene/LoadingPage.unity
    guid: abeb42dd62d07473fa8ba6a1bd5989f5
  - enabled: 1
    path: Assets/01_Scene/GameScene.unity
    guid: 2cda990e2423bbf4892e6590ba056729
  m_configObjects: {}
